trunk/systemc/i2c_master.vcd
$date
     Jan 19, 2012       14:37:39
$end

$version
              SystemC 2.2.0 --- Jan  5 2012 15:59:10
$end

$timescale
     1 ps
$end

$scope module SystemC $end
$var wire    1  aaa  clock       $end
$var wire    1  aab  arazb       $end
$var wire    1  aac  sda       $end
$var wire    1  aad  scl       $end
$var wire    8  aae  data [7:0]  $end
$var wire    7  aaf  slave_addr [6:0]  $end
$var wire    1  aag  send       $end
$var wire    1  aah  rcv       $end
$var wire    1  aai  dispo       $end
$var wire    8  aaj  data_out [7:0]  $end
$upscope $end
$enddefinitions  $end

$comment
All initial values are dumped below at time 1e-09 sec = 1000 timescale units.
$end

$dumpvars
0aaa
0aab
zaac
zaad
b1010101 aae
b1000000 aaf
0aag
0aah
1aai
bXXXXXXXX aaj
$end

#2000
1aaa

#3000
0aaa

#4000
1aaa

#5000
0aaa
1aag

#6000
1aaa

#7000
0aaa

#8000
1aaa
0aai

#9000
0aaa
0aag

#10000
1aaa
0aac

#11000
0aaa

#12000
1aaa
0aad

#13000
0aaa

#14000
1aaa
zaac

#15000
0aaa

#16000
1aaa

#17000
0aaa

#18000
1aaa
zaad

#19000
0aaa

#20000
1aaa

#21000
0aaa

#22000
1aaa

#23000
0aaa

#24000
1aaa
0aac
0aad

#25000
0aaa

#26000
1aaa

#27000
0aaa

#28000
1aaa
zaad

#29000
0aaa

#30000
1aaa

#31000
0aaa

#32000
1aaa

#33000
0aaa

#34000
1aaa
0aad

#35000
0aaa

#36000
1aaa

#37000
0aaa

#38000
1aaa
zaad

#39000
0aaa

#40000
1aaa

#41000
0aaa

#42000
1aaa

#43000
0aaa

#44000
1aaa
0aad

#45000
0aaa

#46000
1aaa

#47000
0aaa

#48000
1aaa
zaad

#49000
0aaa

#50000
1aaa

#51000
0aaa

#52000
1aaa

#53000
0aaa

#54000
1aaa
0aad

#55000
0aaa

#56000
1aaa

#57000
0aaa

#58000
1aaa
zaad

#59000
0aaa

#60000
1aaa

#61000
0aaa

#62000
1aaa

#63000
0aaa

#64000
1aaa
0aad

#65000
0aaa

#66000
1aaa

#67000
0aaa

#68000
1aaa
zaad

#69000
0aaa

#70000
1aaa

#71000
0aaa

#72000
1aaa

#73000
0aaa

#74000
1aaa
0aad

#75000
0aaa

#76000
1aaa

#77000
0aaa

#78000
1aaa
zaad

#79000
0aaa

#80000
1aaa

#81000
0aaa

#82000
1aaa

#83000
0aaa

#84000
1aaa
0aad

#85000
0aaa

#86000
1aaa

#87000
0aaa

#88000
1aaa
zaad

#89000
0aaa

#90000
1aaa

#91000
0aaa

#92000
1aaa

#93000
0aaa

#94000
1aaa
0aad

#95000
0aaa

#96000
1aaa
b10000000 aaj

#97000
0aaa

#98000
1aaa

#99000
0aaa

#100000
1aaa
zaad

#101000
0aaa

#102000
1aaa

#103000
0aaa

#104000
1aaa

#105000
0aaa

#106000
1aaa
0aad

#107000
0aaa

#108000
1aaa

#109000
0aaa

#110000
1aaa
zaad

#111000
0aaa

#112000
1aaa

#113000
0aaa

#114000
1aaa

#115000
0aaa

#116000
1aaa
zaac
0aad

#117000
0aaa

#118000
1aaa

#119000
0aaa

#120000
1aaa
zaad

#121000
0aaa

#122000
1aaa

#123000
0aaa

#124000
1aaa

#125000
0aaa

#126000
1aaa
0aac
0aad

#127000
0aaa

#128000
1aaa

#129000
0aaa

#130000
1aaa
zaad

#131000
0aaa

#132000
1aaa

#133000
0aaa

#134000
1aaa

#135000
0aaa

#136000
1aaa
zaac
0aad

#137000
0aaa

#138000
1aaa

#139000
0aaa

#140000
1aaa
zaad

#141000
0aaa

#142000
1aaa

#143000
0aaa

#144000
1aaa

#145000
0aaa

#146000
1aaa
0aac
0aad

#147000
0aaa

#148000
1aaa

#149000
0aaa

#150000
1aaa
zaad

#151000
0aaa

#152000
1aaa

#153000
0aaa

#154000
1aaa

#155000
0aaa

#156000
1aaa
zaac
0aad

#157000
0aaa

#158000
1aaa

#159000
0aaa

#160000
1aaa
zaad

#161000
0aaa

#162000
1aaa

#163000
0aaa

#164000
1aaa

#165000
0aaa

#166000
1aaa
0aac
0aad

#167000
0aaa

#168000
1aaa

#169000
0aaa

#170000
1aaa
zaad

#171000
0aaa

#172000
1aaa

#173000
0aaa

#174000
1aaa

#175000
0aaa

#176000
1aaa
zaac
0aad

#177000
0aaa

#178000
1aaa

#179000
0aaa

#180000
1aaa
zaad

#181000
0aaa

#182000
1aaa

#183000
0aaa

#184000
1aaa

#185000
0aaa

#186000
1aaa
0aad

#187000
0aaa

#188000
1aaa
1aai

#189000
0aaa

#190000
1aaa

#191000
0aaa

#192000
1aaa
zaad
b1010101 aaj

#193000
0aaa

#194000
1aaa

#195000
0aaa

#196000
1aaa

#197000
0aaa

#198000
1aaa
0aac
0aad

#199000
0aaa

#200000
1aaa

#201000
0aaa

#202000
1aaa
zaad

#203000
0aaa

#204000
1aaa
zaac

